ppppppppppthon1000
appppppppppppeeeeeeend
                He sat up front on her wedding day
                And cried as his daughter walked away.
                Later that night he watched her dance.
                He sat there waiting for his chance.
                The band started to play their song.
                Father and daughter danced along.
                